<svg class="explore-map_svg" xmlns="http://www.w3.org/2000/svg" viewBox="0 0 216.7 256.52">
  <defs>
    <style>
      .cls-1{fill:#e62338;}
    </style>
    
  </defs>
  <title>
    plansitesvg
  </title>
  <g id="area-Calque_83" data-name="Calque_83">
    <path class="cls-1" d="M0,179V202.7a.75.75,0,0,0,.84.74l14.93-1.86a.74.74,0,0,0,.65-.68l1.89-21.8a.74.74,0,0,0-.74-.81H.75A.75.75,0,0,0,0,179Z"/>
  </g>
  <g id="area-garage">
      <rect class="cls-1" x="177.28" y="178.29" width="39.43" height="46.07" rx="0.75"/>  
  </g>
  <g id="area-café_associatif" data-name="café_associatif">
      <path class="cls-1" d="M19.82,179,16,223.55a.76.76,0,0,0,.75.81H61.24a.75.75,0,0,0,.75-.75V179a.76.76,0,0,0-.75-.75H20.57A.76.76,0,0,0,19.82,179Z"/>  
  </g>
  <g id="area-Calque_80" data-name="Calque_80">
      <path class="cls-1" d="M0,89.88v23.66a.74.74,0,0,0,.84.74l14.93-1.85a.75.75,0,0,0,.65-.68L18.31,90a.75.75,0,0,0-.74-.82H.75A.75.75,0,0,0,0,89.88Z"/>  
  </g>
  <g id="area-Calque_79" data-name="Calque_79">
      <path class="cls-1" d="M100.07,16.08H19.18a.75.75,0,0,0-.75.68l-.23,2.72a.74.74,0,0,0,.74.81H94.2A.76.76,0,0,1,95,21V26.3a.74.74,0,0,0,.74.75h35.55a.74.74,0,0,0,.75-.75V23.55a.74.74,0,0,0-.75-.75H101.56a.76.76,0,0,1-.75-.75V16.82A.74.74,0,0,0,100.07,16.08Z"/>  
  </g>
  <g id="area-salle_sur_demande" data-name="salle_sur_demande">
      <path class="cls-1" d="M93.45,22.54a.74.74,0,0,0-.74-.75h-6a.74.74,0,0,0-.74.75v22.8a.75.75,0,0,0,.74.75h44.58a.75.75,0,0,0,.75-.75v-16a.74.74,0,0,0-.75-.75h-37a.76.76,0,0,1-.75-.75Z"/>  
  </g>
  <g id="area-bureaux">
      <rect class="cls-1" x="51.03" width="7.91" height="14.58" rx="0.75"/>  
  </g>
  <g id="area-imprimante">
      <rect class="cls-1" x="48.32" y="21.79" width="13.32" height="12.11" rx="0.75"/>  
  </g>
  <g id="area-Calque_75" data-name="Calque_75">
      <path class="cls-1" d="M0,.75V24.42a.75.75,0,0,0,.84.74L15.78,23.3a.75.75,0,0,0,.65-.68L18.32.81A.75.75,0,0,0,17.58,0H.75A.74.74,0,0,0,0,.75Z"/>  
  </g>
  <g id="area-coworking">
      <path class="cls-1" d="M46.82,45.34V22.54a.74.74,0,0,0-.74-.75H18.68a.74.74,0,0,0-.74.68l-2,22.8a.75.75,0,0,0,.74.82H46.08A.75.75,0,0,0,46.82,45.34Z"/>  
  </g>
  <g id="area-bureaux-2" data-name="bureaux-2">
      <rect class="cls-1" x="60.43" width="13.5" height="14.58" rx="0.75"/>  
  </g>
  <g id="area-Terrasse">
      <rect class="cls-1" x="102.31" width="29.68" height="8.44" rx="0.75"/>  
  </g>
  <g id="area-salle_de_confidentialité" data-name="salle de confidentialité">
      <rect class="cls-1" x="48.32" y="35.4" width="13.32" height="10.69" rx="0.75"/>  
  </g>
  <g id="area-bureaux-3" data-name="bureaux">
      <rect class="cls-1" x="75.42" width="7.34" height="14.58" rx="0.75"/>  
  </g>
  <g id="area-bureaux-4" data-name="bureaux">
      <path class="cls-1" d="M41.36,13.83V.75A.74.74,0,0,0,40.61,0h-20a.75.75,0,0,0-.74.68L18.69,13.77a.75.75,0,0,0,.75.81H40.61A.74.74,0,0,0,41.36,13.83Z"/>  
  </g>
  <g id="area-Calque_68" data-name="Calque 68">
      <rect class="cls-1" x="113.86" y="9.93" width="18.14" height="11.37" rx="0.75"/>  
  </g>
  <g id="area-Calque_67" data-name="Calque 67">
      <path class="cls-1" d="M120.17,77.39l11,.8a.75.75,0,0,0,.8-.75V48.33a.75.75,0,0,0-.75-.75h-11a.75.75,0,0,0-.74.75V76.65A.74.74,0,0,0,120.17,77.39Z"/>  
  </g>
  <g id="area-salle_réunion" data-name="salle réunion">
      <rect class="cls-1" x="63.13" y="21.79" width="21.3" height="24.3" rx="0.75"/>  
  </g>
  <g id="area-bureaux-5" data-name="bureaux">
      <rect class="cls-1" x="42.85" width="6.69" height="14.58" rx="0.75"/>  
  </g>
  <g id="area-Calque_64" data-name="Calque 64">
      <path class="cls-1" d="M120.17,255.71l11,.81a.75.75,0,0,0,.8-.75V179a.75.75,0,0,0-.75-.75h-11a.75.75,0,0,0-.74.75V255A.75.75,0,0,0,120.17,255.71Z"/>  
  </g>
  <g id="area-brico">
      <rect class="cls-1" x="133.48" y="178.29" width="42.3" height="15.38" rx="0.75"/>  
  </g>
  <g id="area-atelier">
      <rect class="cls-1" x="133.48" y="202.67" width="42.3" height="21.69" rx="0.75"/>  
  </g>
  <g id="area-Calque_61" data-name="Calque 61">
      <rect class="cls-1" x="133.48" y="195.17" width="42.3" height="6" rx="0.75"/>  
  </g>
  <g id="area-théâtre">
      <rect class="cls-1" x="63.48" y="202.67" width="54.5" height="21.69" rx="0.75"/>  
  </g>
  <g id="area-Calque_59" data-name="Calque 59">
      <rect class="cls-1" x="63.48" y="195.17" width="54.5" height="6" rx="0.75"/>  
  </g>
  <g id="area-espace_musique" data-name="espace musique">
      <rect class="cls-1" x="63.48" y="178.29" width="54.5" height="15.38" rx="0.75"/>  
  </g>
  <g id="area-douches">
      <rect class="cls-1" x="100.51" y="113.51" width="7.98" height="21.7" rx="0.75"/>  
  </g>
  <g id="area-salle_sur_demande" data-name="salle sur demande">
      <rect class="cls-1" x="133.48" y="113.51" width="42.3" height="21.7" rx="0.75"/>  
  </g>
  <g id="area-accueil">
      <path class="cls-1" d="M40.61,89.13h-20a.76.76,0,0,0-.75.69l-1.63,18.79a.75.75,0,0,0,.74.82H40.61a.75.75,0,0,0,.75-.75V89.88A.75.75,0,0,0,40.61,89.13Z"/>  
  </g>
  <g id="area-atelier_vert_cévennes" data-name="atelier vert cévennes">
      <rect class="cls-1" x="177.28" y="89.13" width="12.15" height="22.88" rx="0.75"/>  
  </g>
  <g id="area-Calque_53" data-name="Calque 53">
      <rect class="cls-1" x="190.92" y="89.13" width="25.79" height="22.88" rx="0.75"/>  
  </g>
  <g id="area-local_journée" data-name="local journée">
      <rect class="cls-1" x="100.51" y="89.13" width="17.49" height="14.05" rx="0.75"/>  
  </g>
  <g id="area-bureau_magma" data-name="bureau magma">
      <path class="cls-1" d="M17.93,111.61l-2,22.78a.75.75,0,0,0,.75.81H40.61a.74.74,0,0,0,.75-.74V111.67a.75.75,0,0,0-.75-.75H18.67A.75.75,0,0,0,17.93,111.61Z"/>  
  </g>
  <g id="area-grand_cance" data-name="grand cance">
      <rect class="cls-1" x="177.28" y="113.51" width="26.52" height="21.7" rx="0.75"/>  
  </g>
  <g id="area-petit_cance" data-name="petit cance">
      <rect class="cls-1" x="205.29" y="113.51" width="11.41" height="21.7" rx="0.75"/>  
  </g>
  <g id="area-grand_atelier" data-name="grand atelier">
      <path class="cls-1" d="M175,89.13H146.7v11.5a.7.7,0,0,1,.25,0,.76.76,0,0,1,.75.75v2.44a.75.75,0,0,0,.74.75H175a.75.75,0,0,0,.74-.75V89.88A.75.75,0,0,0,175,89.13Z"/>  
  </g>
  <g id="area-petit_atelier" data-name="petit atelier">
      <path class="cls-1" d="M134.23,89.13a.76.76,0,0,0-.75.75v13.89a.76.76,0,0,0,.75.75h11.23a.75.75,0,0,0,.74-.75v-2.44a.76.76,0,0,1,.5-.7V89.13Z"/>  
  </g>
  <g id="area-Calque_47" data-name="Calque 47">
      <path class="cls-1" d="M111.62,9.93H103.3a1,1,0,0,0-1,1v9.62a.74.74,0,0,0,.74.75h8.57a.74.74,0,0,0,.74-.75V10.68A.75.75,0,0,0,111.62,9.93Z"/>  
  </g>
  <g id="area-Calque_46" data-name="Calque 46">
      <path class="cls-1" d="M100.81.75a.74.74,0,0,0-.74-.75H85a.75.75,0,0,0-.75.75V13.83a.75.75,0,0,0,.75.75H99.82a1,1,0,0,0,1-1V.75Z"/>  
  </g>
  <g id="area-atelier_partagé" data-name="atelier partagé">
      <path class="cls-1" d="M174.79,106H133a1,1,0,0,1-1-1V90.13a1,1,0,0,0-1-1H120.49a1,1,0,0,0-1,1v13.55a1,1,0,0,1-1,1h-18v0H100a1,1,0,0,1-1-1V90.13a1,1,0,0,0-1-1H43.85a1,1,0,0,0-1,1v44.08a1,1,0,0,0,1,1H71.11a1,1,0,0,0,1-1V113a1,1,0,0,1,1-1h45.38a1,1,0,0,1,1,1v52.56a1,1,0,0,0,.92,1l10.52.77a1,1,0,0,0,1.07-1V113a1,1,0,0,1,1-1h41.8a1,1,0,0,0,1-1v-4A1,1,0,0,0,174.79,106Z"/>  
  </g>
  <g id="area-wc">
      <rect class="cls-1" x="109.98" y="113.51" width="8" height="21.7" rx="0.75"/>  
  </g>
  <g id="area-cantine">
      <path class="cls-1" d="M73.6,134.46a.74.74,0,0,0,.74.74H98.27a.75.75,0,0,0,.75-.74v-21H74.59a1,1,0,0,0-1,1Z"/>  
  </g>  
</svg>
